Wilson Freitas - 16 anos de Curva Prefixada
…
The following objects are masked from 'package:dplyr':

    first, last

Os dados vem no formato wide onde cada coluna representa um vértice e cada linha uma curva. Dessa maneira, faço a conversão dos dados para o formato longo com a função tidyr::pivot_longer.

yc_all <- as_tibble(yc_all)

yc_all_longer <- yc_all |>
  tidyr::pivot_longer(cols = `1 MO`:`30 YR`)

yc_all_longer

# A tibble: 99,480 × 3
   Date       name  value
   <date>     <chr> <dbl>
 1 2023-02-17 1 MO   4.64
 2 2023-02-17 2 MO   4.81
 3 2023-02-17 3 MO   4.84
 4 2023-02-17 6 MO   4.99
 5 2023-02-17 1 YR   5   
 6 2023-02-17 2 YR   4.6 
 7 2023-02-17 3 YR   4.33
 8 2023-02-17 5 YR   4.03
 9 2023-02-17 7 YR   3.95
10 2023-02-17 10 YR  3.82
# … with 99,470 more rows

Aqui faço o tratamento dos dados para converter os prazos em números, considerando meses de 30 dias e anos de 360 dias.

library(stringr)

n <- str_match(yc_all_longer$name, "\\d+") |> as.numeric()
p <- str_match(yc_all_longer$name, "(MO|YR)$")[, 1]
yc_all_longer$days <- ifelse(p == "MO", 30, 360) * n

yc_all_longer

# A tibble: 99,480 × 4
   Date       name  value  days
   <date>     <chr> <dbl> <dbl>
 1 2023-02-17 1 MO   4.64    30
 2 2023-02-17 2 MO   4.81    60
 3 2023-02-17 3 MO   4.84    90
 4 2023-02-17 6 MO   4.99   180
 5 2023-02-17 1 YR   5      360
 6 2023-02-17 2 YR   4.6    720
 7 2023-02-17 3 YR   4.33  1080
 8 2023-02-17 5 YR   4.03  1800
 9 2023-02-17 7 YR   3.95  2520
10 2023-02-17 10 YR  3.82  3600
# … with 99,470 more rows
…
