Wilson Freitas - Super Datasets para Opções de Ações
…
refdate <- preceding("2022-06-24", "Brazil/ANBIMA")
ch <- cotahist_get(refdate, "daily")
yc <- yc_get(refdate)

Com os dados de ações e opções, pelo arquivo COTAHIST, e com as taxas de juros, utilizo a função rb3::cotahist_options_by_symbol_superset para obter os dados de opções para um símbolo específico. Aqui vou utilizar PETR4 que é uma das ações com maior volume de negociação na bolsa.

symbol_ <- "PETR4"
op1 <- cotahist_options_by_symbol_superset(symbol_, ch, yc)

No data.frame op1 temos informações de preço da ação na data de referência, preços das opções, taxas de juros, vencimento das opções, volumes de negociação e diversas outras informações.

op1

# A tibble: 437 × 28
   refdate    symbol   type  strike maturity_d…¹  open  high   low close average
   <date>     <chr>    <fct>  <dbl> <date>       <dbl> <dbl> <dbl> <dbl>   <dbl>
 1 2022-06-24 PETRA140 Call    1.94 2023-01-20   24.8  24.8  24.8  24.8    24.8 
 2 2022-06-24 PETRA239 Call   50.4  2023-01-20    0.09  0.24  0.09  0.23    0.15
 3 2022-06-24 PETRA281 Call   18.4  2023-01-20    9.6   9.6   9.6   9.6     9.6 
 4 2022-06-24 PETRA297 Call   30.2  2023-01-20    2.7   2.7   2.7   2.7     2.7 
 5 2022-06-24 PETRA359 Call   29.4  2023-01-20    2.87  2.87  2.87  2.87    2.87
 6 2022-06-24 PETRA361 Call   26.4  2023-01-20    4.3   4.3   4.23  4.23    4.24
 7 2022-06-24 PETRD450 Call   38.4  2023-04-20    1.42  1.42  1.42  1.42    1.42
 8 2022-06-24 PETRG1   Call   13.4  2022-07-15   13.7  13.7  12.6  12.6    13.6 
 9 2022-06-24 PETRG121 Call   19.2  2022-07-15    7.87  7.87  7.36  7.37    7.79
10 2022-06-24 PETRG178 Call   20.2  2022-07-15    6.7   6.7   6.45  6.45    6.45
# … with 427 more rows, 18 more variables: volume <dbl>,
#   traded_contracts <dbl>, transactions_quantity <int>, distribution_id <int>,
#   symbol.underlying <chr>, open.underlying <dbl>, high.underlying <dbl>,
#   low.underlying <dbl>, close.underlying <dbl>, average.underlying <dbl>,
#   best_bid <dbl>, best_ask <dbl>, volume.underlying <dbl>,
#   traded_contracts.underlying <dbl>, transactions_quantity.underlying <int>,
#   distribution_id.underlying <int>, fixing_maturity_date <date>, …
…
